{
  "connection": "default",
  "collectionName": "status",
  "info": {
    "name": "status",
    "description": "Status corresponding with the availability of a property"
  },
  "options": {
    "timestamps": true
  },
  "attributes": {
    "name": {
      "type": "string"
    },
    "properties": {
      "collection": "property",
      "via": "status"
    }
  }
}