{
  "routes": [
    {
      "method": "GET",
      "path": "/type",
      "handler": "Type.find",
      "config": {
        "policies": []
      }
    },
    {
      "method": "GET",
      "path": "/type/count",
      "handler": "Type.count",
      "config": {
        "policies": []
      }
    },
    {
      "method": "GET",
      "path": "/type/:_id",
      "handler": "Type.findOne",
      "config": {
        "policies": []
      }
    },
    {
      "method": "POST",
      "path": "/type",
      "handler": "Type.create",
      "config": {
        "policies": []
      }
    },
    {
      "method": "PUT",
      "path": "/type/:_id",
      "handler": "Type.update",
      "config": {
        "policies": []
      }
    },
    {
      "method": "DELETE",
      "path": "/type/:_id",
      "handler": "Type.destroy",
      "config": {
        "policies": []
      }
    }
  ]
}