{
  "connection": "default",
  "collectionName": "form",
  "info": {
    "name": "form",
    "description": ""
  },
  "options": {
    "timestamps": true
  },
  "attributes": {
    "name": {
      "type": "string"
    },
    "file": {
      "model": "file",
      "via": "related",
      "plugin": "upload"
    },
    "category": {
      "model": "category",
      "via": "forms"
    }
  }
}